https://www.justthedesign.com	0	2017-04-28 23:16 +00:00
https://www.justthedesign.com/uncategorized/t3n-just-the-designs-tumblr-is-one-of-the-best/	0	2013-04-20 19:52 +00:00
https://www.justthedesign.com/dresses/	53	2016-08-31 17:22 +00:00
https://www.justthedesign.com/mens-coats-jackets/	29	2016-08-31 17:22 +00:00
https://www.justthedesign.com/swimwear-beachwear/	22	2016-08-31 17:22 +00:00
https://www.justthedesign.com/tops/	52	2016-08-31 17:23 +00:00
https://www.justthedesign.com/suits-tailoring/	22	2016-08-31 17:23 +00:00
https://www.justthedesign.com/nightwear-slippers/	4	2016-08-31 17:24 +00:00
https://www.justthedesign.com/bags-purses/	18	2016-08-31 17:24 +00:00
https://www.justthedesign.com/lingerie/	17	2016-08-31 17:25 +00:00
https://www.justthedesign.com/skirts/	14	2016-08-31 17:25 +00:00
https://www.justthedesign.com/watches/	9	2016-08-31 17:25 +00:00
https://www.justthedesign.com/fashion-photography/	59	2016-08-31 17:25 +00:00
https://www.justthedesign.com/kalle-gustafsson-photographer/	16	2016-08-31 17:26 +00:00
https://www.justthedesign.com/billy-huxley/	21	2016-08-31 17:27 +00:00
https://www.justthedesign.com/camilla-akrans-fashion-photography/	18	2016-08-31 17:27 +00:00
https://www.justthedesign.com/georges-antoni-photography/	12	2016-08-31 17:27 +00:00
https://www.justthedesign.com/ricki-hall/	37	2016-08-31 17:28 +00:00
https://www.justthedesign.com/kristian-schuller-fashion-photography/	11	2016-08-31 17:28 +00:00
https://www.justthedesign.com/who-is-cara-delevigne-if-you-dont-know/	17	2016-08-31 17:28 +00:00
https://www.justthedesign.com/anderne-sunglasses-retro-design-that-works/	4	2016-08-31 17:28 +00:00
https://www.justthedesign.com/amanda-fordyce-fashion-photography-focus/	20	2016-08-31 17:29 +00:00
https://www.justthedesign.com/boots/	5	2016-08-31 17:29 +00:00
https://www.justthedesign.com/denim/	6	2016-08-31 17:29 +00:00
https://www.justthedesign.com/womens-shorts/	7	2016-08-31 17:34 +00:00
https://www.justthedesign.com/sunglasses/	10	2016-08-31 17:35 +00:00
https://www.justthedesign.com/coats-jackets/	27	2016-08-31 17:35 +00:00
https://www.justthedesign.com/details-of-the-week-15th-of-october-2015/	13	2016-08-31 17:36 +00:00
https://www.justthedesign.com/terracotta-rust-outfits/	5	2016-08-31 17:37 +00:00
https://www.justthedesign.com/details-of-the-week-8th-of-october-2015/	6	2016-08-31 17:37 +00:00
https://www.justthedesign.com/karlie-kloss-model/	19	2016-08-31 17:37 +00:00
https://www.justthedesign.com/sky-ferreira-model-artist-and-actress/	5	2016-08-31 17:37 +00:00
https://www.justthedesign.com/olivia-palermo-model/	15	2016-08-31 17:37 +00:00
https://www.justthedesign.com/mary-ellen-mark-photographer/	3	2016-08-31 17:37 +00:00
https://www.justthedesign.com/alessandra-ambrosio-model/	6	2016-08-31 17:38 +00:00
https://www.justthedesign.com/barbara-palvin-model/	14	2016-08-31 17:39 +00:00
https://www.justthedesign.com/steven-meisel-photographer/	11	2016-08-31 17:39 +00:00
https://www.justthedesign.com/details-of-the-week-27th-of-september-2015/	6	2016-08-31 17:39 +00:00
https://www.justthedesign.com/adriana-lima-model/	19	2016-08-31 17:39 +00:00
https://www.justthedesign.com/candice-swanepoel-model/	16	2016-08-31 17:40 +00:00
https://www.justthedesign.com/lace-up-detailing-30-ways-to-wear-the-trend/	30	2016-08-31 17:40 +00:00
https://www.justthedesign.com/rankin-aka-john-rankin-waddell-photographer/	18	2016-08-31 17:40 +00:00
https://www.justthedesign.com/fo-porter-model/	5	2016-08-31 17:41 +00:00
https://www.justthedesign.com/kesler-tran-photographer/	17	2016-08-31 17:41 +00:00
https://www.justthedesign.com/clara-alonso-model/	17	2016-08-31 17:42 +00:00
https://www.justthedesign.com/eric-guillemain-photographer/	16	2016-08-31 17:42 +00:00
https://www.justthedesign.com/benny-horne-photography/	21	2016-08-31 17:43 +00:00
https://www.justthedesign.com/giza-lagarce-model/	12	2016-08-31 17:44 +00:00
https://www.justthedesign.com/cailin-russo-model/	15	2016-08-31 17:44 +00:00
https://www.justthedesign.com/remi-rebillard-photography/	11	2016-08-31 17:44 +00:00
https://www.justthedesign.com/100-fall-outfits-ease-into-the-coming-season-fall-outfit-ideas/	124	2016-08-31 17:45 +00:00
https://www.justthedesign.com/give-away-the-original-sex-drugs-lana-tee/	1	2016-08-31 17:45 +00:00
https://www.justthedesign.com/mini-skirt/	11	2016-08-31 17:46 +00:00
https://www.justthedesign.com/stripes-fashion-trend-spring-summer-2014/	56	2016-08-31 17:46 +00:00
https://www.justthedesign.com/floral-fashion-trend-spring-summer-2014/	68	2016-08-31 17:46 +00:00
https://www.justthedesign.com/the-outfits-that-will-show-you-how-to-wear-the-vertical-stripes-trend/	21	2016-08-31 17:46 +00:00
https://www.justthedesign.com/ashley-smith-model/	9	2016-08-31 17:48 +00:00
https://www.justthedesign.com/kenza-fourati-model/	10	2016-08-31 17:48 +00:00
https://www.justthedesign.com/style-is-a-way-to-say-who-you-are-without-having-to-speak/	1	2016-08-31 17:48 +00:00
https://www.justthedesign.com/elyse-taylor-model/	5	2016-08-31 17:49 +00:00
https://www.justthedesign.com/ellen-von-unwerth-photographer/	12	2016-08-31 17:52 +00:00
https://www.justthedesign.com/jourdan-dunn-model/	10	2016-08-31 17:53 +00:00
https://www.justthedesign.com/ash-stymest-model/	9	2016-08-31 17:53 +00:00
https://www.justthedesign.com/inspirational-quotes/	1	2016-08-31 17:53 +00:00
https://www.justthedesign.com/street-style-2014-february/	31	2016-08-31 17:54 +00:00
https://www.justthedesign.com/amber-anderson-model/	7	2016-08-31 17:55 +00:00
https://www.justthedesign.com/irina-shayk-model/	9	2016-08-31 17:55 +00:00
https://www.justthedesign.com/sara-sampaio-model/	12	2016-08-31 17:56 +00:00
https://www.justthedesign.com/rosie-huntington-whiteley-model/	17	2016-08-31 17:56 +00:00
https://www.justthedesign.com/street-style-may-2015/	53	2016-08-31 17:56 +00:00
https://www.justthedesign.com/sequins-trending-in-spring-summer-2014-everything-that-sparkles/	20	2016-08-31 17:57 +00:00
https://www.justthedesign.com/everyone-needs-white-skirt-summer/	6	2016-08-31 17:57 +00:00
https://www.justthedesign.com/the-bandana-little-neck-scarf-trend-is-here-outfits-ideas/	30	2016-08-31 17:57 +00:00
https://www.justthedesign.com/love-everything-lace/	71	2016-08-31 17:58 +00:00
https://www.justthedesign.com/pleated-skirts-perfect-for-summer/	22	2016-08-31 17:58 +00:00
https://www.justthedesign.com/fashion-blogger-outfits-of-coachella-2015/	7	2016-08-31 17:59 +00:00
https://www.justthedesign.com/the-kimono-fashion-trend-for-springsummer-2015-here-are-some-of-the-best-ones-outfits-ideas/	7	2016-08-31 17:59 +00:00
https://www.justthedesign.com/wear-polka-dots-spring-summer-2014/	27	2016-08-31 18:00 +00:00
https://www.justthedesign.com/lace-outfits-ideas-the-lace-trend-is-staying-around-for-springsummer-2015/	15	2016-08-31 18:00 +00:00
https://www.justthedesign.com/leopard-print-has-a-place-in-every-season/	25	2016-08-31 18:00 +00:00
https://www.justthedesign.com/suits-and-sneakers/	1	2016-08-31 18:00 +00:00
https://www.justthedesign.com/all-white-outfits-the-spring-summer-trend/	22	2016-08-31 18:01 +00:00
https://www.justthedesign.com/instagram-fashion-april-2015/	4	2016-08-31 18:01 +00:00
https://www.justthedesign.com/street-style-april-2015/	122	2016-08-31 18:01 +00:00
https://www.justthedesign.com/skirt-over-pants-dress-over-pants-the-long-over-long-trend-outfits-and-ideas/	19	2016-08-31 18:02 +00:00
https://www.justthedesign.com/striped-outfits-ideas-in-2015-stripes-are-no-longer-a-trend-they-are-a-style-stable/	43	2016-08-31 18:04 +00:00
https://www.justthedesign.com/monochrome-fashion-trend-spring-summer-2014/	21	2016-08-31 18:04 +00:00
https://www.justthedesign.com/orange-outfits-and-ideas-they-say-orange-is-the-new-black-do-you-believe-them/	11	2016-08-31 18:04 +00:00
https://www.justthedesign.com/handbag-fashion-trend-spring-summer-2014/	11	2016-08-31 18:05 +00:00
https://www.justthedesign.com/the-platform-shoes-trend-you-want-to-be-part-of-outfits-and-ideas/	14	2016-08-31 18:05 +00:00
https://www.justthedesign.com/there-is-no-easy-way-to-say-it-the-wide-leg-trousers-is-a-trend-outfits-ideas/	12	2016-08-31 18:07 +00:00
https://www.justthedesign.com/culottes-fashion-trend-spring-summer-2014/	32	2016-08-31 18:07 +00:00
https://www.justthedesign.com/feminine-floral-trousers-your-essential-fashion-choice-for-2014/	13	2016-08-31 18:07 +00:00
https://www.justthedesign.com/summer-style-staple-crochet-top/	11	2016-08-31 18:07 +00:00
https://www.justthedesign.com/ring-the-changes-in-2014-with-the-asymmetrical-skirt/	9	2016-08-31 18:08 +00:00
https://www.justthedesign.com/the-high-slit-trend-rules-here-is-why-outfits-and-ideas/	29	2016-08-31 18:08 +00:00
https://www.justthedesign.com/fabulous-full-skirts-summer-2014-wardrobe/	15	2016-08-31 18:08 +00:00
https://www.justthedesign.com/mirrored-sunglasses-a-spring-2014-fashion-reflection/	32	2016-08-31 18:09 +00:00
https://www.justthedesign.com/it-is-a-must-have-the-boyfriend-shirt/	20	2016-08-31 18:10 +00:00
https://www.justthedesign.com/mules-fashion-trend-spring-summer-2014/	14	2016-08-31 18:10 +00:00
https://www.justthedesign.com/best-of-instagram-fashion-march-2015/	22	2016-08-31 18:11 +00:00
https://www.justthedesign.com/style-staple-leather-mini-skirt/	14	2016-08-31 18:11 +00:00
https://www.justthedesign.com/street-style-march-2015/	98	2016-08-31 18:12 +00:00
https://www.justthedesign.com/white-on-white-trend-spring-summer-2014/	23	2016-08-31 18:12 +00:00
https://www.justthedesign.com/the-eyelet-fashion-trend-is-all-the-rage-in-spring-summer-2014/	11	2016-08-31 18:12 +00:00
https://www.justthedesign.com/springs-accessories-trend-no1-the-bucket-bag/	12	2016-08-31 18:13 +00:00
https://www.justthedesign.com/it-is-a-must-have-the-striped-crop-top/	13	2016-08-31 18:13 +00:00
https://www.justthedesign.com/how-to-wear-denim-overalls-in-spring-summer-2014/	26	2016-08-31 18:13 +00:00
https://www.justthedesign.com/off-the-shoulder-trend-spring-summer-2014/	31	2016-08-31 18:13 +00:00
https://www.justthedesign.com/best-of-instagram-fashion-february-2015/	9	2016-08-31 18:14 +00:00
https://www.justthedesign.com/tulle-skirt-doesnt-get-feminine/	31	2016-08-31 18:14 +00:00
https://www.justthedesign.com/is-the-athleisure-trend-coming-to-an-end/	13	2016-08-31 18:14 +00:00
https://www.justthedesign.com/easing-into-autumn-2014-outfits-to-wear/	40	2016-08-31 18:15 +00:00
https://www.justthedesign.com/how-to-style-the-menswear-inspired-fashion-trend-outfits-and-ideas/	7	2016-08-31 18:16 +00:00
https://www.justthedesign.com/how-to-mix-prints-it-is-easy/	10	2016-08-31 18:16 +00:00
https://www.justthedesign.com/the-oversized-sweater-an-autumn-style-staple/	25	2016-08-31 18:16 +00:00
https://www.justthedesign.com/the-70s-trend-and-why-you-should-wear-it-outfits-and-ideas/	22	2016-08-31 18:16 +00:00
https://www.justthedesign.com/mod-style-fashion-trend-autumn-winter-2014/	9	2016-08-31 18:16 +00:00
https://www.justthedesign.com/street-style-february-2015/	86	2016-08-31 18:16 +00:00
https://www.justthedesign.com/black-lace-stay-autumn-2014/	20	2016-08-31 18:18 +00:00
https://www.justthedesign.com/yes-you-can-wear-denim-shorts-in-autumn/	17	2016-08-31 18:18 +00:00
https://www.justthedesign.com/the-roll-neck-and-turtleneck-trend-outfits-wed-wear/	26	2016-08-31 18:18 +00:00
https://www.justthedesign.com/step-into-autumn-2014-with-slip-on-sneakers/	26	2016-08-31 18:19 +00:00
https://www.justthedesign.com/love-the-lace-up-shoes/	14	2016-08-31 18:20 +00:00
https://www.justthedesign.com/summer-2014-right-way-wear-short-shorts/	18	2016-08-31 18:22 +00:00
https://www.justthedesign.com/summer-style-staple-floral-kimono/	11	2016-08-31 18:22 +00:00
https://www.justthedesign.com/the-belt-is-the-one-accessory-youll-need-this-winter-the-belt-trend-outfits/	7	2016-08-31 18:22 +00:00
https://www.justthedesign.com/fashion-trend-2014-let-your-skin-shine-through-with-mesh-this-summer/	24	2016-08-31 18:23 +00:00
https://www.justthedesign.com/how-wed-style-the-chain-fashion-trend-outfits-and-ideas/	5	2016-08-31 18:23 +00:00
https://www.justthedesign.com/street-style-january-2015/	90	2016-08-31 18:23 +00:00
https://www.justthedesign.com/and-the-gingham-trend-continues/	13	2016-08-31 18:24 +00:00
https://www.justthedesign.com/how-to-wear-the-oversized-scarf-trend-huge-scarf-outfit-ideas/	21	2016-08-31 18:26 +00:00
https://www.justthedesign.com/it-has-to-be-warm-furry-or-fuzzy-for-autumn/	52	2016-08-31 18:26 +00:00
https://www.justthedesign.com/the-best-leather-jackets-for-autumn-winter-2014/	14	2016-08-31 18:26 +00:00
https://www.justthedesign.com/mini-bags-trend-autumn-winter-2014/	5	2016-08-31 18:26 +00:00
https://www.justthedesign.com/stylish-hats-spotted-in-autumn-winter-2014/	17	2016-08-31 18:27 +00:00
https://www.justthedesign.com/how-to-style-the-oversized-blazer-trend-outfit-ideas/	3	2016-08-31 18:28 +00:00
https://www.justthedesign.com/grid-prints-that-we-love-for-autumn-winter-2014/	11	2016-08-31 18:28 +00:00
https://www.justthedesign.com/fashion-trend-a-shift-towards-the-backpack/	9	2016-08-31 18:29 +00:00
https://www.justthedesign.com/fashion-trend-alert-whats-red-hot-for-autumn-2014/	8	2016-08-31 18:29 +00:00
https://www.justthedesign.com/how-to-transition-your-overalls-to-autumn/	4	2016-08-31 18:29 +00:00
https://www.justthedesign.com/color-blocking-cute-color-block-dresses-and-outfit-ideas/	11	2016-08-31 18:29 +00:00
https://www.justthedesign.com/shearling-and-sheepskin-trend-autumn-winter-2014/	25	2016-08-31 18:30 +00:00
https://www.justthedesign.com/join-the-normcore-fashion-trend-for-autumn-2014/	9	2016-08-31 18:31 +00:00
https://www.justthedesign.com/autumn-has-arrived-so-has-the-robe-coat-trend/	35	2016-08-31 18:31 +00:00
https://www.justthedesign.com/everyone-is-wearing-buffalo-plaid-yeah-it-is-a-trend/	8	2016-08-31 18:31 +00:00
https://www.justthedesign.com/how-to-wear-the-houndstooth-trend-this-autumn/	15	2016-08-31 18:31 +00:00
https://www.justthedesign.com/deep-v-neck-fall-trend-outfits-wed-wear/	7	2016-08-31 18:31 +00:00
https://www.justthedesign.com/over-the-knee-boots-trend-autumn-winter-2014/	51	2016-08-31 18:32 +00:00
https://www.justthedesign.com/the-burgundy-fashion-trend-continues-in-autumn-2014/	32	2016-08-31 18:32 +00:00
https://www.justthedesign.com/black-ripped-knee-skinny-jeans/	16	2016-08-31 18:33 +00:00
https://www.justthedesign.com/cool-pinstripe-outfits-for-fall-we-love/	19	2016-08-31 18:33 +00:00
https://www.justthedesign.com/how-to-add-embellished-or-studded-pieces-to-your-outfit/	5	2016-08-31 18:34 +00:00
https://www.justthedesign.com/a-trend-in-autumn-how-to-wear-yellow-mustard-in-style/	10	2016-08-31 18:34 +00:00
https://www.justthedesign.com/how-would-you-wear-a-fur-vest-outfit-ideas/	15	2016-08-31 18:34 +00:00
https://www.justthedesign.com/cute-fall-outfits-and-ideas/	126	2016-09-01 10:13 +00:00
https://www.justthedesign.com/the-blush-pink-trend-that-will-change-your-wardrobe-outfits-and-ideas/	43	2016-09-12 22:31 +00:00
https://www.justthedesign.com/how-to-style-the-bell-sleeve-trend-outfits-and-ideas-2/	14	2016-09-16 18:52 +00:00
https://www.justthedesign.com/black-and-camel-outfits-this-is-how-to-style-the-look/	28	2016-10-12 21:11 +00:00
https://www.justthedesign.com/the-cape-trend-is-here-this-is-how-you-style-it/	39	2016-10-19 18:41 +00:00
https://www.justthedesign.com/will-button-fronted-skirts-trend-this-year-you-bet-they-will-outfits-ideas/	32	2016-10-25 20:38 +00:00
https://www.justthedesign.com/how-to-wear-a-lace-dress-this-is-how-its-done/	41	2016-11-06 17:56 +00:00
https://www.justthedesign.com/cute-sweater-and-skirt-combinations-for-autumn/	12	2016-11-06 18:28 +00:00
https://www.justthedesign.com/fluffy-coats-for-winter-here-are-some-of-the-best-ones/	48	2016-11-27 19:17 +00:00
https://www.justthedesign.com/winter-outfits-ideas-youd-want-copy/	40	2016-11-27 19:21 +00:00
https://www.justthedesign.com/we-are-seeing-a-lot-of-colorful-coats-outfits-and-ideas/	11	2016-11-27 19:23 +00:00
https://www.justthedesign.com/oversized-outerwear-fashion-trend-autumn-winter-2014/	7	2016-11-27 19:25 +00:00
https://www.justthedesign.com/how-to-wear-winter-pastels-outfit-ideas/	17	2016-11-27 19:26 +00:00
https://www.justthedesign.com/blanket-coat-trend-we-round-up-the-best-in-ponchos-and-blanket-coats/	48	2016-11-28 19:44 +00:00
https://www.justthedesign.com/street-style-july-2014/	172	2016-12-01 16:39 +00:00
https://www.justthedesign.com/street-style-october-2014/	110	2016-12-01 16:45 +00:00
https://www.justthedesign.com/street-style-june-2014/	63	2016-12-01 16:48 +00:00
https://www.justthedesign.com/street-style-december-2014/	63	2016-12-01 16:50 +00:00
https://www.justthedesign.com/street-style-august-2014/	181	2016-12-01 16:56 +00:00
https://www.justthedesign.com/spring-style-staple-womens-white-blazer/	27	2016-12-01 16:58 +00:00
https://www.justthedesign.com/get-your-hat-on-for-summer-2014/	48	2016-12-01 17:00 +00:00
https://www.justthedesign.com/how-to-wear-autumn-2014s-fringe-fashion-trend/	26	2016-12-01 17:01 +00:00
https://www.justthedesign.com/street-style-november-2014/	60	2016-12-01 17:02 +00:00
https://www.justthedesign.com/military-fashion-trend-report-yeah-we-would-wear-it/	63	2016-12-01 17:05 +00:00
https://www.justthedesign.com/long-over-due-our-denim-on-denim-trend-file-outfits-and-ideas/	39	2016-12-01 17:06 +00:00
https://www.justthedesign.com/tropical-prints-are-topical-for-summer-2014/	41	2016-12-01 17:07 +00:00
https://www.justthedesign.com/fashion-trend-2014-everyones-wearing-flared-jeans/	29	2016-12-01 17:08 +00:00
https://www.justthedesign.com/leather-leggings-the-trend-continues-in-2014/	27	2016-12-01 17:09 +00:00
https://www.justthedesign.com/the-sleeveless-vest-essential-for-autumn-2014/	24	2016-12-01 17:12 +00:00
https://www.justthedesign.com/ripped-jeans-distressed-jeans-they-are-back-in-fashion/	70	2016-12-01 17:13 +00:00
https://www.justthedesign.com/knitwear-fashion-trend-fall-winter-2015/	44	2016-12-01 17:15 +00:00
https://www.justthedesign.com/street-style-september-2014/	181	2016-12-01 17:17 +00:00
https://www.justthedesign.com/knitwear-fashion-trend-autumn-winter-2014/	70	2016-12-02 16:48 +00:00
https://www.justthedesign.com/street-style-may-2014/	117	2016-12-02 17:01 +00:00
https://www.justthedesign.com/street-style-march-2014/	66	2016-12-02 17:06 +00:00
https://www.justthedesign.com/street-style-april-2014/	104	2016-12-02 17:06 +00:00
https://www.justthedesign.com/jewellery/	6	2016-12-02 17:08 +00:00
https://www.justthedesign.com/shoes/	13	2016-12-02 17:08 +00:00
https://www.justthedesign.com/trousers-leggings/	3	2016-12-02 17:11 +00:00
https://www.justthedesign.com/jeans/	14	2016-12-02 17:12 +00:00
https://www.justthedesign.com/stunning-leather-jackets-spotted-spring-2014/	46	2016-12-02 18:51 +00:00
https://www.justthedesign.com/skinny-scarfs-are-you-buying-into-this-fall-trend/	18	2016-12-04 21:35 +00:00
https://www.justthedesign.com/the-preppy-outfits-youd-want-to-copy-this-autumn/	19	2016-12-09 20:53 +00:00
https://www.justthedesign.com/black-and-blue-outfits-does-it-work-outfit-inspiration/	10	2016-12-09 21:10 +00:00
https://www.justthedesign.com/long-cardigan-outfits-an-autumn-fashion-trend/	35	2016-12-11 15:28 +00:00
https://www.justthedesign.com/black-white-outfits/	98	2017-01-19 21:17 +00:00
https://www.justthedesign.com/the-suede-trend-is-upon-us-this-is-how-you-wear-it-outfits-and-ideas/	73	2017-01-21 18:54 +00:00
https://www.justthedesign.com/grey-knitwear-grey-layers-grey-on-grey-grey-is-a-trend/	53	2017-01-31 21:09 +00:00
https://www.justthedesign.com/150-casual-outfits-to-try-for-fall-when-you-have-nothing-to-wear/	147	2017-01-31 21:16 +00:00
https://www.justthedesign.com/cute-winter-outfits-to-get-you-inspired/	126	2017-01-31 21:52 +00:00
https://www.justthedesign.com/outfits/winter/winter-style/	1	2017-02-25 15:35 +00:00
https://www.justthedesign.com/fashion-trends/clothing/embroidery-trend/	1	2017-02-25 18:18 +00:00
https://www.justthedesign.com/best/winter-coats/	1	2017-02-25 20:14 +00:00
https://www.justthedesign.com/outfits/fall/chic-comfy-sweater-skirt-combos/	1	2017-02-25 21:29 +00:00
https://www.justthedesign.com/best/most-popular-cool-new-balance-sneakers-for-girls/	1	2017-02-28 00:23 +00:00
https://www.justthedesign.com/outfits/fall/travel-outfits-airport-style-how-to-look-fashionable-travel/	1	2017-02-28 23:36 +00:00
https://www.justthedesign.com/outfits/winter/outfitswinterstyle-tips-wear-grey-coat-grey-coat-outfits/	1	2017-03-02 11:34 +00:00
https://www.justthedesign.com/outfits/fall/ways-to-style-the-military-jacket-trend-this-fall/	1	2017-03-02 16:41 +00:00
https://www.justthedesign.com/outfits/fall/the-high-waisted-jeans-outfit/	1	2017-03-02 17:37 +00:00
https://www.justthedesign.com/fashion-trends/clothing/wear-slip-dress-trend-confidence/	1	2017-03-02 18:57 +00:00
https://www.justthedesign.com/fashion-trends/clothing/bodysuit-trend-right/	1	2017-03-02 19:09 +00:00
https://www.justthedesign.com/fashion-trends/clothing/pyjamas-trend/	1	2017-03-02 19:35 +00:00
https://www.justthedesign.com/fashion-trends/jewellery/choker-outfits-ideas/	1	2017-03-02 20:36 +00:00
https://www.justthedesign.com/outfits/fall/how-to-wear-hunter-boots/	1	2017-03-02 21:11 +00:00
https://www.justthedesign.com/outfits/fall/fashion-trends-must-2016-fall-outfits/	147	2017-03-02 21:15 +00:00
https://www.justthedesign.com/outfits/winter/looks/	1	2017-03-03 13:58 +00:00
https://www.justthedesign.com/fashion-trends/clothing/style-tips-how-to-wear-velvet/	1	2017-03-04 18:34 +00:00
https://www.justthedesign.com/how-to-wear-over-the-knee-boots-in-fall/	84	2017-03-05 21:29 +00:00
https://www.justthedesign.com/spring-outfits-you-crave/	75	2017-03-05 22:11 +00:00
https://www.justthedesign.com/maxi-dress-outfits-how-to-wear-a-maxi-dress-read-on/	9	2017-03-06 19:39 +00:00
https://www.justthedesign.com/this-is-how-you-should-wear-the-off-the-shoulder-trend/	61	2017-03-06 20:01 +00:00
https://www.justthedesign.com/how-to-wear-gladiator-sandals-outfits/	24	2017-03-06 22:23 +00:00
https://www.justthedesign.com/cute-casual-summer-outfits-what-to-wear/	174	2017-03-06 23:19 +00:00
https://www.justthedesign.com/how-to-wear-palazzo-pants-what-to-wear-with-palazzo-pants/	15	2017-03-06 23:29 +00:00
https://www.justthedesign.com/fashion-trends/clothing/frayed-edges-trend/	1	2017-03-07 00:40 +00:00
https://www.justthedesign.com/outfits-with-white-converse/	33	2017-03-07 19:07 +00:00
https://www.justthedesign.com/co-ord-outfits-the-two-piece-outfit-sets/	21	2017-03-07 19:17 +00:00
https://www.justthedesign.com/it-is-a-trend-and-we-are-calling-it-draped-trench-coats-outfits/	14	2017-03-07 19:24 +00:00
https://www.justthedesign.com/extra-long-sleeves-another-stunning-fall-trend/	25	2017-03-07 19:28 +00:00
https://www.justthedesign.com/what-shoes-to-wear-with-skinny-jeans-we-have-the-answer/	44	2017-03-07 20:01 +00:00
https://www.justthedesign.com/the-spring-trends-100-cute-spring-outfits/	94	2017-03-07 22:33 +00:00
https://www.justthedesign.com/the-boho-outfits-file-what-is-bohemian-style-and-how-do-you-style-it/	53	2017-03-07 23:01 +00:00
https://www.justthedesign.com/fashion-trends/clothing/the-patch-trend-and-how-to-style-it/	1	2017-03-09 23:00 +00:00
https://www.justthedesign.com/the-khaki-jacket-it-is-a-style-staple/	9	2017-03-09 23:34 +00:00
https://www.justthedesign.com/fashion-trends/shoes/how-to-wear-loafers-outfits-with-loafers/	1	2017-03-09 23:35 +00:00
https://www.justthedesign.com/outfits/summer/style-tips-on-what-to-wear-with-white-jeans-the-white-jeans-outfit/	1	2017-03-10 00:00 +00:00
https://www.justthedesign.com/the-plaid-trend-is-everywhere/	45	2017-03-10 11:04 +00:00
https://www.justthedesign.com/outfits/summer/summer-outfits-2016/	1	2017-03-11 02:02 +00:00
https://www.justthedesign.com/outfits/spring/style-tips-on-how-to-wear-leggings/	1	2017-03-11 10:04 +00:00
https://www.justthedesign.com/outfits/spring/what-to-wear-for-spring/	1	2017-03-13 22:27 +00:00
https://www.justthedesign.com/outfits/fall/mini-skirt-outfits-cute-ways-wear-mini-skirt/	1	2017-03-21 15:05 +00:00
https://www.justthedesign.com/the-tomboy-style-illustrated-and-the-cute-tomboy-outfits-you-dont-want-to-miss/	33	2017-03-25 20:36 +00:00
https://www.justthedesign.com/how-to-wear-boyfriend-jeans-outfits/	14	2017-03-25 20:58 +00:00
https://www.justthedesign.com/rocker-outfits-the-ultimate-in-rocker-girl-style-and-how-you-achieve-the-look/	31	2017-03-26 18:40 +00:00
https://www.justthedesign.com/25-simple-ways-to-wear-a-shirt-dress-outfits-ideas/	30	2017-03-26 19:23 +00:00
https://www.justthedesign.com/the-camel-coat-it-is-a-classic/	40	2017-03-27 10:56 +00:00
https://www.justthedesign.com/cute-spring-outfit-ideas/	1	2017-03-29 23:02 +00:00
https://www.justthedesign.com/rev-up-your-wardrobe-with-these-leather-jacket-outfits/	1	2017-03-29 23:52 +00:00
https://www.justthedesign.com/trench-coat-outfits-to-give-you-that-inspiration-you-need/	1	2017-03-30 23:23 +00:00
https://www.justthedesign.com/pleated-skirt-outfit-game-changer-spring/	1	2017-03-31 00:01 +00:00
https://www.justthedesign.com/red-dress-outfits/	1	2017-04-01 00:16 +00:00
https://www.justthedesign.com/how-to-wear-a-bomber-jacket-bomber-jacket-outfits/	1	2017-04-03 23:16 +00:00
https://www.justthedesign.com/cool-ways-to-wear-the-sweater-dress-trend/	19	2017-04-04 10:29 +00:00
https://www.justthedesign.com/how-to-wear-timberland-boots-if-you-are-a-girl-outfits-with-timberlands/	1	2017-04-04 22:39 +00:00
https://www.justthedesign.com/these-denim-skirt-outfits-will-make-you-become-a-headturner/	26	2017-04-06 23:24 +00:00
https://www.justthedesign.com/thigh-high-boots-outfit-how-to-wear-thigh-high-boots/	1	2017-04-06 23:46 +00:00
https://www.justthedesign.com/keep-it-neutral-camel-cream-beige-and-nude-always-works-outfits-and-ideas/	41	2017-04-07 12:22 +00:00
https://www.justthedesign.com/outfits-with-black-jeans/	1	2017-04-08 01:07 +00:00
https://www.justthedesign.com/outfits-with-converse-how-to-wear-converse/	49	2017-04-10 08:15 +00:00
https://www.justthedesign.com/how-to-wear-a-faux-fur-stole-or-faux-fur-collar-coat-in-winter-outfits-ideas/	1	2017-04-10 22:41 +00:00
https://www.justthedesign.com/the-patchwork-trend-patchwork-outfits/	1	2017-04-10 23:00 +00:00
https://www.justthedesign.com/the-maxi-coat-the-long-coat-trend-that-you-will-be-wearing-outfits-and-ideas/	48	2017-04-11 19:16 +00:00
https://www.justthedesign.com/outfits/spring/cute-black-dress-outfits-how-to-wear-a-black-dress/	1	2017-04-12 09:19 +00:00
https://www.justthedesign.com/simple-outfits-how-to-wear-the-sleeveless-turtleneck/	1	2017-04-18 22:05 +00:00
https://www.justthedesign.com/cute-beach-outfits-beach-outfit-ideas-outfits-for-the-beach/	49	2017-04-19 20:44 +00:00
https://www.justthedesign.com/how-to-style-blazer-and-jeans-tips-for-girls/	21	2017-04-22 23:02 +00:00
https://www.justthedesign.com/outfits/fall/pencil-skirt-outfits/	15	2017-04-22 23:21 +00:00
https://www.justthedesign.com/all-black-outfits-you-cant-really-go-wrong/	63	2017-04-23 22:04 +00:00
https://www.justthedesign.com/sleeveless-jackets-outfits-how-to-wear-a-sleeveless-jacket/	1	2017-04-28 22:00 +00:00
https://www.justthedesign.com/outfits-with-joggers-everything-you-need-to-know-about-the-joggers-trend-and-how-to-wear-them/	1	2017-04-28 22:37 +00:00
https://www.justthedesign.com/30-great-outfits-that-will-show-you-how-to-wear-the-shearling-trend/	1	2017-04-28 23:16 +00:00